^C:\USERS\TONI\DESKTOP\PROYECTOSCOMPARTIDOS\ARENAFIGHT\ARENAFIGHT\ARENAFIGHT\MAIN.CPP
C:\USERS\TONI\DESKTOP\PROYECTOSCOMPARTIDOS\ARENAFIGHT\ARENAFIGHT\ARENAFIGHT\DEBUG\VC140.PDB
C:\USERS\TONI\DESKTOP\PROYECTOSCOMPARTIDOS\ARENAFIGHT\ARENAFIGHT\ARENAFIGHT\DEBUG\VC140.IDB
C:\USERS\TONI\DESKTOP\PROYECTOSCOMPARTIDOS\ARENAFIGHT\ARENAFIGHT\ARENAFIGHT\DEBUG\MAIN.OBJ
